…
## 5447.76 sec elapsed

save(merged_phoenix, file = "Dateien/merged_after_comment_elite.RData")

# "Dateien/merged_after_comment_elite.RData" wird bentigt

merged_phoenix$comment_elite = as.factor(merged_phoenix$comment_elite)
merged_phoenix %>% group_by(user_id) %>% summarise(n = n()) %>% filter(n>1) #insgesamt 2407 User haben bei mindestens 2 der 55 verschiedenen Burgerlden kommentiert

## Source: local data table [2,400 x 2]
## 
## # A tibble: 2,400 x 2
##    user_id                    n
##    <chr>                  <int>
##  1 -Qv5nRgMX91WJtnNYYc7tA     2
##  2 -V2cSbxyiiTuiwKxKRxafw     3
##  3 -nY0lZeWVVZCDg5ADpM1ow     3
##  4 01wompbstdwlq1ct1-RWZQ     5
##  5 03a88lU2W4JP_k5H0DGv8A     5
##  6 0igE5FptopIBuLhipR2ucQ     2
##  7 0mKUbIUXOvH0cHcGQ1KGqg     5
##  8 1IJQFFK4vROUbpPZbgkdrA     3
##  9 1YorWW0Z-YDuYC5GplNabw     4
## 10 1vwbBseeDMs8J-4zSz851Q     3
## # ... with 2,390 more rows
…
## Trainings- (75% der Daten) und Testset (25% der Daten) erstellen
trainRowNumbers <- createDataPartition(merged$review_useful_rating, p = 0.75, list = F) 
merged_train = merged[trainRowNumbers,]
merged_test = merged[-trainRowNumbers,]

#kurze entfernen des zu klassifizierenden Faktors, damit er nicht dummy-kodiert wird
x = select(merged_train, -review_useful_rating) 
y = merged_train$review_useful_rating 

# erstellt eine Zusammenfassung numerischer Variablen und zeigt NAs bei Faktoren, die dummycodiert werden mssen
skimmed <- skim_to_wide(merged_train)
skimmed[, c(1:5, 9:11, 13, 15:16)]

## # A tibble: 26 x 11
##    type   variable    missing complete n     mean  sd    p0    p50   p100 
##    <chr>  <chr>       <chr>   <chr>    <chr> <chr> <chr> <chr> <chr> <chr>
##  1 factor restaurant~ 0       13956    13956 <NA>  <NA>  <NA>  <NA>  <NA> 
##  2 factor review_sta~ 0       13956    13956 <NA>  <NA>  <NA>  <NA>  <NA> 
##  3 factor review_use~ 0       13956    13956 <NA>  <NA>  <NA>  <NA>  <NA> 
##  4 factor review_use~ 0       13956    13956 <NA>  <NA>  <NA>  <NA>  <NA> 
##  5 integ~ restaurant~ 0       13956    13956 " 61~ " 40~ 100   680   1526 
##  6 integ~ review_age~ 0       13956    13956 1156~ " 86~ 0     965   4640 
##  7 integ~ review_wc_~ 0       13956    13956 "  5~ "  4~ 4     37    481  
##  8 integ~ review_wc_~ 0       13956    13956 " 10~ "  9~ 5     71    941  
##  9 integ~ user_compl~ 0       13956    13956 "   ~ "  2~ 0     0     1159 
## 10 integ~ user_compl~ 0       13956    13956 "  9~ " 80~ 0     1     43259
## # ... with 16 more rows, and 1 more variable: hist <chr>
…
